{
  "name": "tor2e",
  "title": "The One Ring 2nd edition.",
  "description": "[Beta] - A simple integration of The One Ring 2nd edition (should not be used for games yet).",
  "author": "Hervé Darritchon",
  "authors": [],
  "url": "https://gitlab.com/herve.darritchon/foundryvtt-tor2e/",
  "flags": {},
  "version": "0.1.7",
  "minimumCoreVersion": "0.8.3",
  "compatibleCoreVersion": "0.8.9",
  "scripts": [],
  "esmodules": [
    "./modules/tor2e.mjs"
  ],
  "styles": [
    "./styles/tor2e.css"
  ],
  "languages": [
    {
      "lang": "en",
      "name": "English",
      "path": "./lang/en.json"
    },
    {
      "lang": "es",
      "name": "Spanish",
      "path": "./lang/es.json"
    },
    {
      "lang": "fr",
      "name": "French",
      "path": "./lang/fr.json"
    }
  ],
  "packs": [],
  "system": [],
  "dependencies": [],
  "socket": true,
  "manifest": "https://gitlab.com/herve.darritchon/foundryvtt-tor2e/-/raw/main/src/system.json",
  "download": "https://gitlab.com/herve.darritchon/foundryvtt-tor2e/-/jobs/artifacts/beta-0.1.7/raw/tor2e.zip?job=build",
  "protected": false,
  "initiative": "1d20",
  "gridDistance": 5,
  "gridUnits": "ft",
  "primaryTokenAttribute": "resources.endurance",
  "secondaryTokenAttribute": "resources.hope"
}